^C:\USERS\100568964\DOCUMENTS\FMOD_PLUGIN\FMOD_PLUGIN\WRAPPER.CPP
C:\USERS\100568964\DOCUMENTS\FMOD_PLUGIN\FMOD_PLUGIN\DEBUG\VC140.PDB
C:\USERS\100568964\DOCUMENTS\FMOD_PLUGIN\FMOD_PLUGIN\DEBUG\VC140.IDB
C:\USERS\100568964\DOCUMENTS\FMOD_PLUGIN\FMOD_PLUGIN\DEBUG\WRAPPER.OBJ
