^C:\Users\100526516\Documents\Assignment3\gameenginesassignment1\P1DialogueMalcolm100568964\P1_code\DLL\DLL\DLL.vcxproj
C:\Users\100526516\Documents\Assignment3\gameenginesassignment1\P1DialogueMalcolm100568964\P1_code\DLL\x64\Release\DLL.lib
C:\Users\100526516\Documents\Assignment3\gameenginesassignment1\P1DialogueMalcolm100568964\P1_code\DLL\x64\Release\DLL.exp
C:\Users\100526516\Documents\Assignment3\gameenginesassignment1\P1DialogueMalcolm100568964\P1_code\DLL\x64\Release\DLL.ipdb
C:\Users\100526516\Documents\Assignment3\gameenginesassignment1\P1DialogueMalcolm100568964\P1_code\DLL\x64\Release\DLL.iobj
